<?xml version="1.0" encoding="UTF-8"?>
<map type="toc">
  <title>Table of Contents</title>
  <page href="../contents/First_Topic.htm" format="html" processing-role="normal"></page>
  <page href="../contents/Second_Topic.htm" format="html" processing-role="normal"></page>
</map>